Exit code: ExitSuccess
Stdout:
Welcome to the Java interpreter.
Type `:?` at the prompt for the list of commands.
Java> Java> 7 : int
Java> int
Java> 7.0 : double
Java> double
Java> float
Java> 3.6000001f : float
Java> double
Java> @4 => "hi4" : String
Java> @8 => "4hi" : String
Java> String
Java> @12 => "9hi" : String
Java> @18 => "4hi5" : String
Java> @24 => "hi45" : String
Java> <nulltype> is not convertible to a numeric type.
Java> <nulltype> is not convertible to a numeric type.
Java> @28 => "hinull" : String
Java> @32 => "nullhi" : String
Java> <nulltype> is not convertible to a numeric type.
Java> <nulltype> is not convertible to a numeric type.
Java> boolean is not convertible to a numeric type.
Java> boolean is not convertible to a numeric type.
Java> Good-bye.

Stderr:
